^C:\USERS\RINKL\SOURCE\REPOS\TIC-TAC-TOE\TIC-TAC-TOE\TIC-TAC-TOE.CPP
C:\USERS\RINKL\SOURCE\REPOS\TIC-TAC-TOE\TIC-TAC-TOE\DEBUG\VC142.PDB
C:\USERS\RINKL\SOURCE\REPOS\TIC-TAC-TOE\TIC-TAC-TOE\DEBUG\VC142.IDB
C:\USERS\RINKL\SOURCE\REPOS\TIC-TAC-TOE\TIC-TAC-TOE\DEBUG\TIC-TAC-TOE.OBJ
